{
    "tags": {
        "allowUnknownTags": ["optional"] //or true
    },

    "plugins": ["node_modules/better-docs/typescript"],

    "source": {
        "includePattern": "\\.(jsx|js|ts|tsx)$"
    }
}
